C:\Repos\PK2021\src\main\java\stereotype\Validator.java
C:\Repos\PK2021\src\main\java\validator\ColorUndefinedException.java
C:\Repos\PK2021\src\main\java\core\CarType.java
C:\Repos\PK2021\src\main\java\validator\ValidationException.java
C:\Repos\PK2021\src\main\java\validator\CarValidator.java
C:\Repos\PK2021\src\main\java\core\ColorType.java
C:\Repos\PK2021\src\main\java\excel\ExcelReader.java
C:\Repos\PK2021\src\main\java\Main.java
C:\Repos\PK2021\src\main\java\validator\CarTypeValidatorImpl.java
C:\Repos\PK2021\src\main\java\validator\CarValidatorService.java
C:\Repos\PK2021\src\main\java\core\Car.java
C:\Repos\PK2021\src\main\java\validator\Errors.java
C:\Repos\PK2021\src\main\java\validator\CarColorValidatorImpl.java
C:\Repos\PK2021\src\main\java\validator\ErrorDTO.java
C:\Repos\PK2021\src\main\java\validator\ValidatorProvider.java
